<?xml version="1.0" encoding="utf-8"?>
<!-- Generator: Adobe Illustrator 16.0.0, SVG Export Plug-In . SVG Version: 6.00 Build 0)  -->
<!DOCTYPE svg PUBLIC "-//W3C//DTD SVG 1.1//EN" "http://www.w3.org/Graphics/SVG/1.1/DTD/svg11.dtd">
<svg version="1.1" id="Layer_1" xmlns="http://www.w3.org/2000/svg" xmlns:xlink="http://www.w3.org/1999/xlink" x="0px" y="0px"
	 width="841.889px" height="595.281px" viewBox="0 0 841.889 595.281" enable-background="new 0 0 841.889 595.281"
	 xml:space="preserve">
<title>PPS Logo</title>
<path fill="#FFFFFF" d="M395.887,219.515c2.177,0.072,4.236,1.003,5.729,2.59c1.179,1.491,1.786,4.729,1.786,9.811l0.472,25.703
	c0,31.394-0.479,49.805-1.434,55.232c-0.922,5.396-3.786,8.34-8.574,8.791c-2.942,0.248-4.415,1.014-4.415,2.295
	c0,1.354,1.374,1.963,4.082,1.963c0.589,0,1.963-0.078,4.12-0.235c4.421-0.366,8.175-0.55,11.264-0.55
	c4.57,0,9.946,0.195,16.089,0.589c2.942,0.118,5.121,0.196,6.553,0.196c2.453,0,3.709-0.706,3.709-2.139
	c0-1.434-0.923-1.963-2.786-2.119c-5.082-0.217-8.183-2.061-9.358-5.554c-1.179-3.491-1.746-15.696-1.746-36.711
	c2.719,1.777,5.67,3.17,8.771,4.141c11.75,3.575,24.509,0.044,32.747-9.065l0.235,0.059c6.461-6.594,10.026-15.491,9.909-24.722
	c0.289-9.419-3.416-18.521-10.203-25.057c-6.651-6.494-13.734-9.811-21.016-9.811c-3.54-0.015-7.031,0.819-10.183,2.434
	c-3.466,1.814-6.551,4.279-9.085,7.26c0.118-1.275,0.177-2.061,0.177-2.374l-0.177-7.849c-8.214,0.432-16.965,0.641-26.252,0.628
	c-2.257,0-3.396,0.765-3.396,2.296C392.904,218.848,393.904,219.28,395.887,219.515z M424.944,230.818
	c2.343-5.625,5.814-8.45,10.419-8.477c4.514,0,8.184,2.648,11.009,7.849c2.824,5.199,4.198,12.694,4.198,22.25l0.04,0.118
	c0,8.986-1.25,15.735-3.748,20.248c-2.087,4.266-6.478,6.913-11.223,6.77c-4.945,0-8.549-1.668-10.812-5.003
	c-2.257-3.336-3.395-9.458-3.395-18.405C421.433,244.893,422.604,236.442,424.944,230.818z"/>
<path fill="#FFFFFF" d="M316.837,325.979c0.588,0,1.962,0,4.101-0.234c4.414-0.372,8.162-0.549,11.282-0.549
	c4.563,0,9.928,0.195,16.089,0.588c2.943,0.117,5.121,0.195,6.533,0.195c2.473,0,3.709-0.705,3.709-2.139
	c0-1.432-0.902-1.962-2.768-2.117c-5.089-0.224-8.208-2.074-9.358-5.554c-1.151-3.479-1.733-15.717-1.746-36.711
	c2.712,1.776,5.657,3.17,8.751,4.14c3.027,0.921,6.175,1.384,9.34,1.374c8.938,0.036,17.462-3.765,23.407-10.438
	c6.467-6.593,10.039-15.489,9.929-24.723l0.019-0.098c0.323-9.358-3.301-18.423-9.987-24.978c-6.646-6.54-13.649-9.811-21.014-9.811
	c-3.554,0.011-7.053,0.872-10.203,2.512c-3.457,1.82-6.533,4.285-9.065,7.26c0.1-1.275,0.157-2.061,0.157-2.374l-0.157-7.849
	c-8.214,0.432-16.972,0.642-26.271,0.628c-2.257,0-3.374,0.766-3.374,2.296s1,1.962,2.962,2.197c2.18,0.063,4.242,0.996,5.729,2.59
	c1.197,1.491,1.807,4.729,1.807,9.811l0.471,25.704c0,31.394-0.479,49.805-1.434,55.232c-0.94,5.396-3.807,8.338-8.594,8.789
	c-2.942,0.249-4.415,1.016-4.415,2.297C312.734,325.371,314.108,325.979,316.837,325.979z M348.169,230.818
	c2.342-5.625,5.82-8.431,10.438-8.418c4.532,0,8.202,2.649,11.008,7.849c2.807,5.2,4.219,12.695,4.219,22.25l0.001,0.059
	c0,8.986-1.249,15.735-3.747,20.248c-2.087,4.266-6.479,6.913-11.225,6.77c-4.943,0-8.548-1.668-10.811-5.003
	c-2.276-3.336-3.396-9.458-3.396-18.405C344.656,244.893,345.827,236.442,348.169,230.818z"/>
<path fill="#FFFFFF" d="M476.783,282.993c0.282,0.53,0.854,0.839,1.452,0.785c1.158,0,2.158-1.04,3.002-3.101
	c0.354-0.883,0.883-1.313,1.57-1.313c1.405,0.32,2.737,0.906,3.924,1.727c5.121,2.871,10.928,4.289,16.796,4.101
	c4.869,0.111,9.679-1.103,13.911-3.512c3.731-2.084,6.819-5.151,8.928-8.869l-0.176-0.082c1.905-3.364,2.918-7.16,2.942-11.027
	c-0.003-3.126-0.843-6.195-2.434-8.888c-1.418-2.592-3.437-4.805-5.887-6.456c-4.024-2.377-8.201-4.494-12.498-6.337
	c-4.94-2.078-9.662-4.648-14.088-7.672c-2.119-1.315-3.472-3.574-3.63-6.062c0.142-1.981,1.183-3.789,2.825-4.905
	c2.137-1.59,4.757-2.394,7.417-2.276c8.411,0,14.858,4.893,19.347,14.677c1.295,2.942,2.59,4.414,3.924,4.414s1.824-1.02,1.824-3.08
	c-0.045-3.706-0.287-7.406-0.726-11.086c-0.14-2.487-0.508-4.957-1.1-7.378c-0.291-0.493-0.844-0.77-1.413-0.706
	c-1,0-1.766,0.746-2.295,2.218c-0.354,1.157-0.884,1.727-1.569,1.727c-0.649-0.049-1.276-0.258-1.824-0.608
	c-4.87-2.995-10.452-4.635-16.168-4.748c-6.106-0.194-12.084,1.779-16.874,5.572c-4.461,3.45-7.005,8.823-6.849,14.46
	c-0.219,4.605,1.496,9.094,4.729,12.381c3.101,3.101,8.854,6.729,17.267,10.89c4.044,1.787,7.848,4.075,11.321,6.809
	c1.888,1.638,2.969,4.016,2.963,6.515c0.157,2.676-1.046,5.25-3.198,6.848c-2.28,1.639-5.042,2.474-7.849,2.374
	c-8.712,0-15.599-5.887-20.661-17.659c-1.393-3.257-2.747-4.886-3.924-4.886s-1.962,1.099-1.962,3.297
	c0,5.716,0.085,10.653,0.255,14.813C476.025,278.317,476.27,280.681,476.783,282.993z"/>
<path fill="#FFFFFF" d="M420.963,466.407c99.694,0,180.513-80.818,180.513-180.513s-80.818-180.513-180.513-180.513
	c-99.695,0-180.513,80.817-180.513,180.513C240.45,385.588,321.268,466.407,420.963,466.407z M419.472,110.227
	c84.523,0,153.043,68.521,153.043,153.044s-68.52,153.043-153.043,153.043s-153.043-68.521-153.043-153.043
	S334.948,110.227,419.472,110.227z"/>
<path fill="#FFFFFF" d="M421.788,482.123c123.734-0.465,223.673-101.139,223.228-224.875l0.019-0.06
	C644.567,133.427,543.86,33.477,420.1,33.944c-123.761,0.467-223.711,101.174-223.244,224.935
	C197.323,382.641,298.027,482.589,421.788,482.123z M422.102,96.219c104.896-0.413,190.264,84.287,190.677,189.183
	c-0.001,0.02-0.001,0.04-0.001,0.061c0.391,104.906-84.338,190.265-189.244,190.654c-104.905,0.389-190.265-84.34-190.654-189.245
	C232.49,181.976,317.204,96.62,422.102,96.219z"/>
</svg>
